{
  "buildFiles": [
    "/Users/dylanaird/Downloads/android-ndk-r15c/build/cmake/android.toolchain.cmake",
    "/Users/dylanaird/projects/ECchat/android/app/CMakeLists.txt"
  ],
  "cleanCommands": [
    "/Users/dylanaird/Library/Android/sdk/cmake/3.10.2.4988404/bin/ninja -C \"/Users/dylanaird/projects/ECchat/android/app/.cxx/cmake/profile/x86\" clean"
  ],
  "buildTargetsCommand": "/Users/dylanaird/Library/Android/sdk/cmake/3.10.2.4988404/bin/ninja  -C \"/Users/dylanaird/projects/ECchat/android/app/.cxx/cmake/profile/x86\" {LIST_OF_TARGETS_TO_BUILD}",
  "libraries": {
    "core-lib-Debug-x86": {
      "artifactName": "core-lib",
      "buildCommand": "/Users/dylanaird/Library/Android/sdk/cmake/3.10.2.4988404/bin/ninja -C \"/Users/dylanaird/projects/ECchat/android/app/.cxx/cmake/profile/x86\" core-lib",
      "abi": "x86",
      "output": "/Users/dylanaird/projects/ECchat/build/app/intermediates/cmake/profile/obj/x86/libcore-lib.so",
      "runtimeFiles": []
    }
  }
}