[
{
  "directory": "/Users/dylanaird/projects/ECchat/android/app/.cxx/cmake/profile/x86",
  "command": "/Users/dylanaird/Downloads/android-ndk-r15c/toolchains/llvm/prebuilt/darwin-x86_64/bin/clang --target=i686-none-linux-android --gcc-toolchain=/Users/dylanaird/Downloads/android-ndk-r15c/toolchains/x86-4.9/prebuilt/darwin-x86_64 --sysroot=/Users/dylanaird/Downloads/android-ndk-r15c/sysroot -Dcore_lib_EXPORTS -I../../../../../../Modules/libsecp256k1 -I../../../../../../Modules/libcecc/include -I../../../../../../Modules/libcecc/src -isystem /Users/dylanaird/Downloads/android-ndk-r15c/sysroot/usr/include -isystem /Users/dylanaird/Downloads/android-ndk-r15c/sysroot/usr/include/i686-linux-android  -isystem /Users/dylanaird/Downloads/android-ndk-r15c/sysroot/usr/include/i686-linux-android -D__ANDROID_API__=24 -g -DANDROID -ffunction-sections -funwind-tables -fstack-protector-strong -no-canonical-prefixes -mstackrealign -Wa,--noexecstack -Wformat -Werror=format-security  -DANDROID_STL=gnustl_static -DANDROID_TOOLCHAIN=clang -O0 -fno-limit-debug-info  -fPIC   -o CMakeFiles/core-lib.dir/Users/dylanaird/projects/ECchat/Modules/libcecc/src/api.c.o   -c /Users/dylanaird/projects/ECchat/Modules/libcecc/src/api.c",
  "file": "/Users/dylanaird/projects/ECchat/Modules/libcecc/src/api.c"
},

{
  "directory": "/Users/dylanaird/projects/ECchat/android/app/.cxx/cmake/profile/x86",
  "command": "/Users/dylanaird/Downloads/android-ndk-r15c/toolchains/llvm/prebuilt/darwin-x86_64/bin/clang --target=i686-none-linux-android --gcc-toolchain=/Users/dylanaird/Downloads/android-ndk-r15c/toolchains/x86-4.9/prebuilt/darwin-x86_64 --sysroot=/Users/dylanaird/Downloads/android-ndk-r15c/sysroot -Dcore_lib_EXPORTS -I../../../../../../Modules/libsecp256k1 -I../../../../../../Modules/libcecc/include -I../../../../../../Modules/libcecc/src -isystem /Users/dylanaird/Downloads/android-ndk-r15c/sysroot/usr/include -isystem /Users/dylanaird/Downloads/android-ndk-r15c/sysroot/usr/include/i686-linux-android  -isystem /Users/dylanaird/Downloads/android-ndk-r15c/sysroot/usr/include/i686-linux-android -D__ANDROID_API__=24 -g -DANDROID -ffunction-sections -funwind-tables -fstack-protector-strong -no-canonical-prefixes -mstackrealign -Wa,--noexecstack -Wformat -Werror=format-security  -DANDROID_STL=gnustl_static -DANDROID_TOOLCHAIN=clang -O0 -fno-limit-debug-info  -fPIC   -o CMakeFiles/core-lib.dir/Users/dylanaird/projects/ECchat/Modules/libcecc/src/uint256.c.o   -c /Users/dylanaird/projects/ECchat/Modules/libcecc/src/uint256.c",
  "file": "/Users/dylanaird/projects/ECchat/Modules/libcecc/src/uint256.c"
},

{
  "directory": "/Users/dylanaird/projects/ECchat/android/app/.cxx/cmake/profile/x86",
  "command": "/Users/dylanaird/Downloads/android-ndk-r15c/toolchains/llvm/prebuilt/darwin-x86_64/bin/clang --target=i686-none-linux-android --gcc-toolchain=/Users/dylanaird/Downloads/android-ndk-r15c/toolchains/x86-4.9/prebuilt/darwin-x86_64 --sysroot=/Users/dylanaird/Downloads/android-ndk-r15c/sysroot -Dcore_lib_EXPORTS -I../../../../../../Modules/libsecp256k1 -I../../../../../../Modules/libcecc/include -I../../../../../../Modules/libcecc/src -isystem /Users/dylanaird/Downloads/android-ndk-r15c/sysroot/usr/include -isystem /Users/dylanaird/Downloads/android-ndk-r15c/sysroot/usr/include/i686-linux-android  -isystem /Users/dylanaird/Downloads/android-ndk-r15c/sysroot/usr/include/i686-linux-android -D__ANDROID_API__=24 -g -DANDROID -ffunction-sections -funwind-tables -fstack-protector-strong -no-canonical-prefixes -mstackrealign -Wa,--noexecstack -Wformat -Werror=format-security  -DANDROID_STL=gnustl_static -DANDROID_TOOLCHAIN=clang -O0 -fno-limit-debug-info  -fPIC   -o CMakeFiles/core-lib.dir/Users/dylanaird/projects/ECchat/Modules/libcecc/src/address.c.o   -c /Users/dylanaird/projects/ECchat/Modules/libcecc/src/address.c",
  "file": "/Users/dylanaird/projects/ECchat/Modules/libcecc/src/address.c"
},

{
  "directory": "/Users/dylanaird/projects/ECchat/android/app/.cxx/cmake/profile/x86",
  "command": "/Users/dylanaird/Downloads/android-ndk-r15c/toolchains/llvm/prebuilt/darwin-x86_64/bin/clang --target=i686-none-linux-android --gcc-toolchain=/Users/dylanaird/Downloads/android-ndk-r15c/toolchains/x86-4.9/prebuilt/darwin-x86_64 --sysroot=/Users/dylanaird/Downloads/android-ndk-r15c/sysroot -Dcore_lib_EXPORTS -I../../../../../../Modules/libsecp256k1 -I../../../../../../Modules/libcecc/include -I../../../../../../Modules/libcecc/src -isystem /Users/dylanaird/Downloads/android-ndk-r15c/sysroot/usr/include -isystem /Users/dylanaird/Downloads/android-ndk-r15c/sysroot/usr/include/i686-linux-android  -isystem /Users/dylanaird/Downloads/android-ndk-r15c/sysroot/usr/include/i686-linux-android -D__ANDROID_API__=24 -g -DANDROID -ffunction-sections -funwind-tables -fstack-protector-strong -no-canonical-prefixes -mstackrealign -Wa,--noexecstack -Wformat -Werror=format-security  -DANDROID_STL=gnustl_static -DANDROID_TOOLCHAIN=clang -O0 -fno-limit-debug-info  -fPIC   -o CMakeFiles/core-lib.dir/Users/dylanaird/projects/ECchat/Modules/libcecc/src/base58.c.o   -c /Users/dylanaird/projects/ECchat/Modules/libcecc/src/base58.c",
  "file": "/Users/dylanaird/projects/ECchat/Modules/libcecc/src/base58.c"
},

{
  "directory": "/Users/dylanaird/projects/ECchat/android/app/.cxx/cmake/profile/x86",
  "command": "/Users/dylanaird/Downloads/android-ndk-r15c/toolchains/llvm/prebuilt/darwin-x86_64/bin/clang --target=i686-none-linux-android --gcc-toolchain=/Users/dylanaird/Downloads/android-ndk-r15c/toolchains/x86-4.9/prebuilt/darwin-x86_64 --sysroot=/Users/dylanaird/Downloads/android-ndk-r15c/sysroot -Dcore_lib_EXPORTS -I../../../../../../Modules/libsecp256k1 -I../../../../../../Modules/libcecc/include -I../../../../../../Modules/libcecc/src -isystem /Users/dylanaird/Downloads/android-ndk-r15c/sysroot/usr/include -isystem /Users/dylanaird/Downloads/android-ndk-r15c/sysroot/usr/include/i686-linux-android  -isystem /Users/dylanaird/Downloads/android-ndk-r15c/sysroot/usr/include/i686-linux-android -D__ANDROID_API__=24 -g -DANDROID -ffunction-sections -funwind-tables -fstack-protector-strong -no-canonical-prefixes -mstackrealign -Wa,--noexecstack -Wformat -Werror=format-security  -DANDROID_STL=gnustl_static -DANDROID_TOOLCHAIN=clang -O0 -fno-limit-debug-info  -fPIC   -o CMakeFiles/core-lib.dir/Users/dylanaird/projects/ECchat/Modules/libcecc/src/sendmessages.c.o   -c /Users/dylanaird/projects/ECchat/Modules/libcecc/src/sendmessages.c",
  "file": "/Users/dylanaird/projects/ECchat/Modules/libcecc/src/sendmessages.c"
},

{
  "directory": "/Users/dylanaird/projects/ECchat/android/app/.cxx/cmake/profile/x86",
  "command": "/Users/dylanaird/Downloads/android-ndk-r15c/toolchains/llvm/prebuilt/darwin-x86_64/bin/clang --target=i686-none-linux-android --gcc-toolchain=/Users/dylanaird/Downloads/android-ndk-r15c/toolchains/x86-4.9/prebuilt/darwin-x86_64 --sysroot=/Users/dylanaird/Downloads/android-ndk-r15c/sysroot -Dcore_lib_EXPORTS -I../../../../../../Modules/libsecp256k1 -I../../../../../../Modules/libcecc/include -I../../../../../../Modules/libcecc/src -isystem /Users/dylanaird/Downloads/android-ndk-r15c/sysroot/usr/include -isystem /Users/dylanaird/Downloads/android-ndk-r15c/sysroot/usr/include/i686-linux-android  -isystem /Users/dylanaird/Downloads/android-ndk-r15c/sysroot/usr/include/i686-linux-android -D__ANDROID_API__=24 -g -DANDROID -ffunction-sections -funwind-tables -fstack-protector-strong -no-canonical-prefixes -mstackrealign -Wa,--noexecstack -Wformat -Werror=format-security  -DANDROID_STL=gnustl_static -DANDROID_TOOLCHAIN=clang -O0 -fno-limit-debug-info  -fPIC   -o CMakeFiles/core-lib.dir/Users/dylanaird/projects/ECchat/Modules/libcecc/src/processmessages.c.o   -c /Users/dylanaird/projects/ECchat/Modules/libcecc/src/processmessages.c",
  "file": "/Users/dylanaird/projects/ECchat/Modules/libcecc/src/processmessages.c"
},

{
  "directory": "/Users/dylanaird/projects/ECchat/android/app/.cxx/cmake/profile/x86",
  "command": "/Users/dylanaird/Downloads/android-ndk-r15c/toolchains/llvm/prebuilt/darwin-x86_64/bin/clang --target=i686-none-linux-android --gcc-toolchain=/Users/dylanaird/Downloads/android-ndk-r15c/toolchains/x86-4.9/prebuilt/darwin-x86_64 --sysroot=/Users/dylanaird/Downloads/android-ndk-r15c/sysroot -Dcore_lib_EXPORTS -I../../../../../../Modules/libsecp256k1 -I../../../../../../Modules/libcecc/include -I../../../../../../Modules/libcecc/src -isystem /Users/dylanaird/Downloads/android-ndk-r15c/sysroot/usr/include -isystem /Users/dylanaird/Downloads/android-ndk-r15c/sysroot/usr/include/i686-linux-android  -isystem /Users/dylanaird/Downloads/android-ndk-r15c/sysroot/usr/include/i686-linux-android -D__ANDROID_API__=24 -g -DANDROID -ffunction-sections -funwind-tables -fstack-protector-strong -no-canonical-prefixes -mstackrealign -Wa,--noexecstack -Wformat -Werror=format-security  -DANDROID_STL=gnustl_static -DANDROID_TOOLCHAIN=clang -O0 -fno-limit-debug-info  -fPIC   -o CMakeFiles/core-lib.dir/Users/dylanaird/projects/ECchat/Modules/libcecc/src/BIP32Sequence.c.o   -c /Users/dylanaird/projects/ECchat/Modules/libcecc/src/BIP32Sequence.c",
  "file": "/Users/dylanaird/projects/ECchat/Modules/libcecc/src/BIP32Sequence.c"
},

{
  "directory": "/Users/dylanaird/projects/ECchat/android/app/.cxx/cmake/profile/x86",
  "command": "/Users/dylanaird/Downloads/android-ndk-r15c/toolchains/llvm/prebuilt/darwin-x86_64/bin/clang --target=i686-none-linux-android --gcc-toolchain=/Users/dylanaird/Downloads/android-ndk-r15c/toolchains/x86-4.9/prebuilt/darwin-x86_64 --sysroot=/Users/dylanaird/Downloads/android-ndk-r15c/sysroot -Dcore_lib_EXPORTS -I../../../../../../Modules/libsecp256k1 -I../../../../../../Modules/libcecc/include -I../../../../../../Modules/libcecc/src -isystem /Users/dylanaird/Downloads/android-ndk-r15c/sysroot/usr/include -isystem /Users/dylanaird/Downloads/android-ndk-r15c/sysroot/usr/include/i686-linux-android  -isystem /Users/dylanaird/Downloads/android-ndk-r15c/sysroot/usr/include/i686-linux-android -D__ANDROID_API__=24 -g -DANDROID -ffunction-sections -funwind-tables -fstack-protector-strong -no-canonical-prefixes -mstackrealign -Wa,--noexecstack -Wformat -Werror=format-security  -DANDROID_STL=gnustl_static -DANDROID_TOOLCHAIN=clang -O0 -fno-limit-debug-info  -fPIC   -o CMakeFiles/core-lib.dir/Users/dylanaird/projects/ECchat/Modules/libcecc/src/BIP38Key.c.o   -c /Users/dylanaird/projects/ECchat/Modules/libcecc/src/BIP38Key.c",
  "file": "/Users/dylanaird/projects/ECchat/Modules/libcecc/src/BIP38Key.c"
},

{
  "directory": "/Users/dylanaird/projects/ECchat/android/app/.cxx/cmake/profile/x86",
  "command": "/Users/dylanaird/Downloads/android-ndk-r15c/toolchains/llvm/prebuilt/darwin-x86_64/bin/clang --target=i686-none-linux-android --gcc-toolchain=/Users/dylanaird/Downloads/android-ndk-r15c/toolchains/x86-4.9/prebuilt/darwin-x86_64 --sysroot=/Users/dylanaird/Downloads/android-ndk-r15c/sysroot -Dcore_lib_EXPORTS -I../../../../../../Modules/libsecp256k1 -I../../../../../../Modules/libcecc/include -I../../../../../../Modules/libcecc/src -isystem /Users/dylanaird/Downloads/android-ndk-r15c/sysroot/usr/include -isystem /Users/dylanaird/Downloads/android-ndk-r15c/sysroot/usr/include/i686-linux-android  -isystem /Users/dylanaird/Downloads/android-ndk-r15c/sysroot/usr/include/i686-linux-android -D__ANDROID_API__=24 -g -DANDROID -ffunction-sections -funwind-tables -fstack-protector-strong -no-canonical-prefixes -mstackrealign -Wa,--noexecstack -Wformat -Werror=format-security  -DANDROID_STL=gnustl_static -DANDROID_TOOLCHAIN=clang -O0 -fno-limit-debug-info  -fPIC   -o CMakeFiles/core-lib.dir/Users/dylanaird/projects/ECchat/Modules/libcecc/src/BIP39Mnemonic.c.o   -c /Users/dylanaird/projects/ECchat/Modules/libcecc/src/BIP39Mnemonic.c",
  "file": "/Users/dylanaird/projects/ECchat/Modules/libcecc/src/BIP39Mnemonic.c"
},

{
  "directory": "/Users/dylanaird/projects/ECchat/android/app/.cxx/cmake/profile/x86",
  "command": "/Users/dylanaird/Downloads/android-ndk-r15c/toolchains/llvm/prebuilt/darwin-x86_64/bin/clang --target=i686-none-linux-android --gcc-toolchain=/Users/dylanaird/Downloads/android-ndk-r15c/toolchains/x86-4.9/prebuilt/darwin-x86_64 --sysroot=/Users/dylanaird/Downloads/android-ndk-r15c/sysroot -Dcore_lib_EXPORTS -I../../../../../../Modules/libsecp256k1 -I../../../../../../Modules/libcecc/include -I../../../../../../Modules/libcecc/src -isystem /Users/dylanaird/Downloads/android-ndk-r15c/sysroot/usr/include -isystem /Users/dylanaird/Downloads/android-ndk-r15c/sysroot/usr/include/i686-linux-android  -isystem /Users/dylanaird/Downloads/android-ndk-r15c/sysroot/usr/include/i686-linux-android -D__ANDROID_API__=24 -g -DANDROID -ffunction-sections -funwind-tables -fstack-protector-strong -no-canonical-prefixes -mstackrealign -Wa,--noexecstack -Wformat -Werror=format-security  -DANDROID_STL=gnustl_static -DANDROID_TOOLCHAIN=clang -O0 -fno-limit-debug-info  -fPIC   -o CMakeFiles/core-lib.dir/Users/dylanaird/projects/ECchat/Modules/libcecc/src/bloomFilter.c.o   -c /Users/dylanaird/projects/ECchat/Modules/libcecc/src/bloomFilter.c",
  "file": "/Users/dylanaird/projects/ECchat/Modules/libcecc/src/bloomFilter.c"
},

{
  "directory": "/Users/dylanaird/projects/ECchat/android/app/.cxx/cmake/profile/x86",
  "command": "/Users/dylanaird/Downloads/android-ndk-r15c/toolchains/llvm/prebuilt/darwin-x86_64/bin/clang --target=i686-none-linux-android --gcc-toolchain=/Users/dylanaird/Downloads/android-ndk-r15c/toolchains/x86-4.9/prebuilt/darwin-x86_64 --sysroot=/Users/dylanaird/Downloads/android-ndk-r15c/sysroot -Dcore_lib_EXPORTS -I../../../../../../Modules/libsecp256k1 -I../../../../../../Modules/libcecc/include -I../../../../../../Modules/libcecc/src -isystem /Users/dylanaird/Downloads/android-ndk-r15c/sysroot/usr/include -isystem /Users/dylanaird/Downloads/android-ndk-r15c/sysroot/usr/include/i686-linux-android  -isystem /Users/dylanaird/Downloads/android-ndk-r15c/sysroot/usr/include/i686-linux-android -D__ANDROID_API__=24 -g -DANDROID -ffunction-sections -funwind-tables -fstack-protector-strong -no-canonical-prefixes -mstackrealign -Wa,--noexecstack -Wformat -Werror=format-security  -DANDROID_STL=gnustl_static -DANDROID_TOOLCHAIN=clang -O0 -fno-limit-debug-info  -fPIC   -o CMakeFiles/core-lib.dir/Users/dylanaird/projects/ECchat/Modules/libcecc/src/crypto.c.o   -c /Users/dylanaird/projects/ECchat/Modules/libcecc/src/crypto.c",
  "file": "/Users/dylanaird/projects/ECchat/Modules/libcecc/src/crypto.c"
},

{
  "directory": "/Users/dylanaird/projects/ECchat/android/app/.cxx/cmake/profile/x86",
  "command": "/Users/dylanaird/Downloads/android-ndk-r15c/toolchains/llvm/prebuilt/darwin-x86_64/bin/clang --target=i686-none-linux-android --gcc-toolchain=/Users/dylanaird/Downloads/android-ndk-r15c/toolchains/x86-4.9/prebuilt/darwin-x86_64 --sysroot=/Users/dylanaird/Downloads/android-ndk-r15c/sysroot -Dcore_lib_EXPORTS -I../../../../../../Modules/libsecp256k1 -I../../../../../../Modules/libcecc/include -I../../../../../../Modules/libcecc/src -isystem /Users/dylanaird/Downloads/android-ndk-r15c/sysroot/usr/include -isystem /Users/dylanaird/Downloads/android-ndk-r15c/sysroot/usr/include/i686-linux-android  -isystem /Users/dylanaird/Downloads/android-ndk-r15c/sysroot/usr/include/i686-linux-android -D__ANDROID_API__=24 -g -DANDROID -ffunction-sections -funwind-tables -fstack-protector-strong -no-canonical-prefixes -mstackrealign -Wa,--noexecstack -Wformat -Werror=format-security  -DANDROID_STL=gnustl_static -DANDROID_TOOLCHAIN=clang -O0 -fno-limit-debug-info  -fPIC   -o CMakeFiles/core-lib.dir/Users/dylanaird/projects/ECchat/Modules/libcecc/src/key.c.o   -c /Users/dylanaird/projects/ECchat/Modules/libcecc/src/key.c",
  "file": "/Users/dylanaird/projects/ECchat/Modules/libcecc/src/key.c"
},

{
  "directory": "/Users/dylanaird/projects/ECchat/android/app/.cxx/cmake/profile/x86",
  "command": "/Users/dylanaird/Downloads/android-ndk-r15c/toolchains/llvm/prebuilt/darwin-x86_64/bin/clang --target=i686-none-linux-android --gcc-toolchain=/Users/dylanaird/Downloads/android-ndk-r15c/toolchains/x86-4.9/prebuilt/darwin-x86_64 --sysroot=/Users/dylanaird/Downloads/android-ndk-r15c/sysroot -Dcore_lib_EXPORTS -I../../../../../../Modules/libsecp256k1 -I../../../../../../Modules/libcecc/include -I../../../../../../Modules/libcecc/src -isystem /Users/dylanaird/Downloads/android-ndk-r15c/sysroot/usr/include -isystem /Users/dylanaird/Downloads/android-ndk-r15c/sysroot/usr/include/i686-linux-android  -isystem /Users/dylanaird/Downloads/android-ndk-r15c/sysroot/usr/include/i686-linux-android -D__ANDROID_API__=24 -g -DANDROID -ffunction-sections -funwind-tables -fstack-protector-strong -no-canonical-prefixes -mstackrealign -Wa,--noexecstack -Wformat -Werror=format-security  -DANDROID_STL=gnustl_static -DANDROID_TOOLCHAIN=clang -O0 -fno-limit-debug-info  -fPIC   -o CMakeFiles/core-lib.dir/Users/dylanaird/projects/ECchat/Modules/libcecc/src/merkleBlock.c.o   -c /Users/dylanaird/projects/ECchat/Modules/libcecc/src/merkleBlock.c",
  "file": "/Users/dylanaird/projects/ECchat/Modules/libcecc/src/merkleBlock.c"
},

{
  "directory": "/Users/dylanaird/projects/ECchat/android/app/.cxx/cmake/profile/x86",
  "command": "/Users/dylanaird/Downloads/android-ndk-r15c/toolchains/llvm/prebuilt/darwin-x86_64/bin/clang --target=i686-none-linux-android --gcc-toolchain=/Users/dylanaird/Downloads/android-ndk-r15c/toolchains/x86-4.9/prebuilt/darwin-x86_64 --sysroot=/Users/dylanaird/Downloads/android-ndk-r15c/sysroot -Dcore_lib_EXPORTS -I../../../../../../Modules/libsecp256k1 -I../../../../../../Modules/libcecc/include -I../../../../../../Modules/libcecc/src -isystem /Users/dylanaird/Downloads/android-ndk-r15c/sysroot/usr/include -isystem /Users/dylanaird/Downloads/android-ndk-r15c/sysroot/usr/include/i686-linux-android  -isystem /Users/dylanaird/Downloads/android-ndk-r15c/sysroot/usr/include/i686-linux-android -D__ANDROID_API__=24 -g -DANDROID -ffunction-sections -funwind-tables -fstack-protector-strong -no-canonical-prefixes -mstackrealign -Wa,--noexecstack -Wformat -Werror=format-security  -DANDROID_STL=gnustl_static -DANDROID_TOOLCHAIN=clang -O0 -fno-limit-debug-info  -fPIC   -o CMakeFiles/core-lib.dir/Users/dylanaird/projects/ECchat/Modules/libcecc/src/paymentProtocol.c.o   -c /Users/dylanaird/projects/ECchat/Modules/libcecc/src/paymentProtocol.c",
  "file": "/Users/dylanaird/projects/ECchat/Modules/libcecc/src/paymentProtocol.c"
},

{
  "directory": "/Users/dylanaird/projects/ECchat/android/app/.cxx/cmake/profile/x86",
  "command": "/Users/dylanaird/Downloads/android-ndk-r15c/toolchains/llvm/prebuilt/darwin-x86_64/bin/clang --target=i686-none-linux-android --gcc-toolchain=/Users/dylanaird/Downloads/android-ndk-r15c/toolchains/x86-4.9/prebuilt/darwin-x86_64 --sysroot=/Users/dylanaird/Downloads/android-ndk-r15c/sysroot -Dcore_lib_EXPORTS -I../../../../../../Modules/libsecp256k1 -I../../../../../../Modules/libcecc/include -I../../../../../../Modules/libcecc/src -isystem /Users/dylanaird/Downloads/android-ndk-r15c/sysroot/usr/include -isystem /Users/dylanaird/Downloads/android-ndk-r15c/sysroot/usr/include/i686-linux-android  -isystem /Users/dylanaird/Downloads/android-ndk-r15c/sysroot/usr/include/i686-linux-android -D__ANDROID_API__=24 -g -DANDROID -ffunction-sections -funwind-tables -fstack-protector-strong -no-canonical-prefixes -mstackrealign -Wa,--noexecstack -Wformat -Werror=format-security  -DANDROID_STL=gnustl_static -DANDROID_TOOLCHAIN=clang -O0 -fno-limit-debug-info  -fPIC   -o CMakeFiles/core-lib.dir/Users/dylanaird/projects/ECchat/Modules/libcecc/src/peer.c.o   -c /Users/dylanaird/projects/ECchat/Modules/libcecc/src/peer.c",
  "file": "/Users/dylanaird/projects/ECchat/Modules/libcecc/src/peer.c"
},

{
  "directory": "/Users/dylanaird/projects/ECchat/android/app/.cxx/cmake/profile/x86",
  "command": "/Users/dylanaird/Downloads/android-ndk-r15c/toolchains/llvm/prebuilt/darwin-x86_64/bin/clang --target=i686-none-linux-android --gcc-toolchain=/Users/dylanaird/Downloads/android-ndk-r15c/toolchains/x86-4.9/prebuilt/darwin-x86_64 --sysroot=/Users/dylanaird/Downloads/android-ndk-r15c/sysroot -Dcore_lib_EXPORTS -I../../../../../../Modules/libsecp256k1 -I../../../../../../Modules/libcecc/include -I../../../../../../Modules/libcecc/src -isystem /Users/dylanaird/Downloads/android-ndk-r15c/sysroot/usr/include -isystem /Users/dylanaird/Downloads/android-ndk-r15c/sysroot/usr/include/i686-linux-android  -isystem /Users/dylanaird/Downloads/android-ndk-r15c/sysroot/usr/include/i686-linux-android -D__ANDROID_API__=24 -g -DANDROID -ffunction-sections -funwind-tables -fstack-protector-strong -no-canonical-prefixes -mstackrealign -Wa,--noexecstack -Wformat -Werror=format-security  -DANDROID_STL=gnustl_static -DANDROID_TOOLCHAIN=clang -O0 -fno-limit-debug-info  -fPIC   -o CMakeFiles/core-lib.dir/Users/dylanaird/projects/ECchat/Modules/libcecc/src/peerManager.c.o   -c /Users/dylanaird/projects/ECchat/Modules/libcecc/src/peerManager.c",
  "file": "/Users/dylanaird/projects/ECchat/Modules/libcecc/src/peerManager.c"
},

{
  "directory": "/Users/dylanaird/projects/ECchat/android/app/.cxx/cmake/profile/x86",
  "command": "/Users/dylanaird/Downloads/android-ndk-r15c/toolchains/llvm/prebuilt/darwin-x86_64/bin/clang --target=i686-none-linux-android --gcc-toolchain=/Users/dylanaird/Downloads/android-ndk-r15c/toolchains/x86-4.9/prebuilt/darwin-x86_64 --sysroot=/Users/dylanaird/Downloads/android-ndk-r15c/sysroot -Dcore_lib_EXPORTS -I../../../../../../Modules/libsecp256k1 -I../../../../../../Modules/libcecc/include -I../../../../../../Modules/libcecc/src -isystem /Users/dylanaird/Downloads/android-ndk-r15c/sysroot/usr/include -isystem /Users/dylanaird/Downloads/android-ndk-r15c/sysroot/usr/include/i686-linux-android  -isystem /Users/dylanaird/Downloads/android-ndk-r15c/sysroot/usr/include/i686-linux-android -D__ANDROID_API__=24 -g -DANDROID -ffunction-sections -funwind-tables -fstack-protector-strong -no-canonical-prefixes -mstackrealign -Wa,--noexecstack -Wformat -Werror=format-security  -DANDROID_STL=gnustl_static -DANDROID_TOOLCHAIN=clang -O0 -fno-limit-debug-info  -fPIC   -o CMakeFiles/core-lib.dir/Users/dylanaird/projects/ECchat/Modules/libcecc/src/set.c.o   -c /Users/dylanaird/projects/ECchat/Modules/libcecc/src/set.c",
  "file": "/Users/dylanaird/projects/ECchat/Modules/libcecc/src/set.c"
},

{
  "directory": "/Users/dylanaird/projects/ECchat/android/app/.cxx/cmake/profile/x86",
  "command": "/Users/dylanaird/Downloads/android-ndk-r15c/toolchains/llvm/prebuilt/darwin-x86_64/bin/clang --target=i686-none-linux-android --gcc-toolchain=/Users/dylanaird/Downloads/android-ndk-r15c/toolchains/x86-4.9/prebuilt/darwin-x86_64 --sysroot=/Users/dylanaird/Downloads/android-ndk-r15c/sysroot -Dcore_lib_EXPORTS -I../../../../../../Modules/libsecp256k1 -I../../../../../../Modules/libcecc/include -I../../../../../../Modules/libcecc/src -isystem /Users/dylanaird/Downloads/android-ndk-r15c/sysroot/usr/include -isystem /Users/dylanaird/Downloads/android-ndk-r15c/sysroot/usr/include/i686-linux-android  -isystem /Users/dylanaird/Downloads/android-ndk-r15c/sysroot/usr/include/i686-linux-android -D__ANDROID_API__=24 -g -DANDROID -ffunction-sections -funwind-tables -fstack-protector-strong -no-canonical-prefixes -mstackrealign -Wa,--noexecstack -Wformat -Werror=format-security  -DANDROID_STL=gnustl_static -DANDROID_TOOLCHAIN=clang -O0 -fno-limit-debug-info  -fPIC   -o CMakeFiles/core-lib.dir/Users/dylanaird/projects/ECchat/Modules/libcecc/src/util.c.o   -c /Users/dylanaird/projects/ECchat/Modules/libcecc/src/util.c",
  "file": "/Users/dylanaird/projects/ECchat/Modules/libcecc/src/util.c"
},

{
  "directory": "/Users/dylanaird/projects/ECchat/android/app/.cxx/cmake/profile/x86",
  "command": "/Users/dylanaird/Downloads/android-ndk-r15c/toolchains/llvm/prebuilt/darwin-x86_64/bin/clang --target=i686-none-linux-android --gcc-toolchain=/Users/dylanaird/Downloads/android-ndk-r15c/toolchains/x86-4.9/prebuilt/darwin-x86_64 --sysroot=/Users/dylanaird/Downloads/android-ndk-r15c/sysroot -Dcore_lib_EXPORTS -I../../../../../../Modules/libsecp256k1 -I../../../../../../Modules/libcecc/include -I../../../../../../Modules/libcecc/src -isystem /Users/dylanaird/Downloads/android-ndk-r15c/sysroot/usr/include -isystem /Users/dylanaird/Downloads/android-ndk-r15c/sysroot/usr/include/i686-linux-android  -isystem /Users/dylanaird/Downloads/android-ndk-r15c/sysroot/usr/include/i686-linux-android -D__ANDROID_API__=24 -g -DANDROID -ffunction-sections -funwind-tables -fstack-protector-strong -no-canonical-prefixes -mstackrealign -Wa,--noexecstack -Wformat -Werror=format-security  -DANDROID_STL=gnustl_static -DANDROID_TOOLCHAIN=clang -O0 -fno-limit-debug-info  -fPIC   -o CMakeFiles/core-lib.dir/Users/dylanaird/projects/ECchat/Modules/libcecc/src/transaction.c.o   -c /Users/dylanaird/projects/ECchat/Modules/libcecc/src/transaction.c",
  "file": "/Users/dylanaird/projects/ECchat/Modules/libcecc/src/transaction.c"
},

{
  "directory": "/Users/dylanaird/projects/ECchat/android/app/.cxx/cmake/profile/x86",
  "command": "/Users/dylanaird/Downloads/android-ndk-r15c/toolchains/llvm/prebuilt/darwin-x86_64/bin/clang --target=i686-none-linux-android --gcc-toolchain=/Users/dylanaird/Downloads/android-ndk-r15c/toolchains/x86-4.9/prebuilt/darwin-x86_64 --sysroot=/Users/dylanaird/Downloads/android-ndk-r15c/sysroot -Dcore_lib_EXPORTS -I../../../../../../Modules/libsecp256k1 -I../../../../../../Modules/libcecc/include -I../../../../../../Modules/libcecc/src -isystem /Users/dylanaird/Downloads/android-ndk-r15c/sysroot/usr/include -isystem /Users/dylanaird/Downloads/android-ndk-r15c/sysroot/usr/include/i686-linux-android  -isystem /Users/dylanaird/Downloads/android-ndk-r15c/sysroot/usr/include/i686-linux-android -D__ANDROID_API__=24 -g -DANDROID -ffunction-sections -funwind-tables -fstack-protector-strong -no-canonical-prefixes -mstackrealign -Wa,--noexecstack -Wformat -Werror=format-security  -DANDROID_STL=gnustl_static -DANDROID_TOOLCHAIN=clang -O0 -fno-limit-debug-info  -fPIC   -o CMakeFiles/core-lib.dir/Users/dylanaird/projects/ECchat/Modules/libcecc/src/wallet.c.o   -c /Users/dylanaird/projects/ECchat/Modules/libcecc/src/wallet.c",
  "file": "/Users/dylanaird/projects/ECchat/Modules/libcecc/src/wallet.c"
}
]