{
  "stringTable": {
    "0": "/Users/dylanaird/projects/ECchat/android/app/.cxx/cmake/profile/x86_64",
    "1": "--target=x86_64-none-linux-android --gcc-toolchain=/Users/dylanaird/Downloads/android-ndk-r15c/toolchains/x86_64-4.9/prebuilt/darwin-x86_64 --sysroot=/Users/dylanaird/Downloads/android-ndk-r15c/sysroot -Dcore_lib_EXPORTS -I../../../../../../Modules/libsecp256k1 -I../../../../../../Modules/libcecc/include -I../../../../../../Modules/libcecc/src -isystem /Users/dylanaird/Downloads/android-ndk-r15c/sysroot/usr/include -isystem /Users/dylanaird/Downloads/android-ndk-r15c/sysroot/usr/include/x86_64-linux-android -isystem /Users/dylanaird/Downloads/android-ndk-r15c/sysroot/usr/include/x86_64-linux-android -D__ANDROID_API__=24 -g -DANDROID -ffunction-sections -funwind-tables -fstack-protector-strong -no-canonical-prefixes -Wa,--noexecstack -Wformat -Werror=format-security -DANDROID_STL=gnustl_static -DANDROID_TOOLCHAIN=clang -O0 -fno-limit-debug-info -fPIC"
  },
  "buildFiles": [
    "/Users/dylanaird/Downloads/android-ndk-r15c/build/cmake/android.toolchain.cmake",
    "/Users/dylanaird/projects/ECchat/android/app/CMakeLists.txt"
  ],
  "cleanCommands": [
    "/Users/dylanaird/Library/Android/sdk/cmake/3.10.2.4988404/bin/ninja -C \"/Users/dylanaird/projects/ECchat/android/app/.cxx/cmake/profile/x86_64\" clean"
  ],
  "buildTargetsCommand": "/Users/dylanaird/Library/Android/sdk/cmake/3.10.2.4988404/bin/ninja  -C \"/Users/dylanaird/projects/ECchat/android/app/.cxx/cmake/profile/x86_64\" {LIST_OF_TARGETS_TO_BUILD}",
  "libraries": {
    "core-lib-Debug-x86_64": {
      "buildCommand": "/Users/dylanaird/Library/Android/sdk/cmake/3.10.2.4988404/bin/ninja -C \"/Users/dylanaird/projects/ECchat/android/app/.cxx/cmake/profile/x86_64\" core-lib",
      "buildType": "debug",
      "toolchain": "3808990951",
      "abi": "x86_64",
      "artifactName": "core-lib",
      "files": [
        {
          "src": "/Users/dylanaird/projects/ECchat/Modules/libcecc/src/api.c",
          "flagsOrdinal": 1,
          "workingDirectoryOrdinal": 0
        },
        {
          "src": "/Users/dylanaird/projects/ECchat/Modules/libcecc/src/uint256.c",
          "flagsOrdinal": 1,
          "workingDirectoryOrdinal": 0
        },
        {
          "src": "/Users/dylanaird/projects/ECchat/Modules/libcecc/src/address.c",
          "flagsOrdinal": 1,
          "workingDirectoryOrdinal": 0
        },
        {
          "src": "/Users/dylanaird/projects/ECchat/Modules/libcecc/src/base58.c",
          "flagsOrdinal": 1,
          "workingDirectoryOrdinal": 0
        },
        {
          "src": "/Users/dylanaird/projects/ECchat/Modules/libcecc/src/sendmessages.c",
          "flagsOrdinal": 1,
          "workingDirectoryOrdinal": 0
        },
        {
          "src": "/Users/dylanaird/projects/ECchat/Modules/libcecc/src/processmessages.c",
          "flagsOrdinal": 1,
          "workingDirectoryOrdinal": 0
        },
        {
          "src": "/Users/dylanaird/projects/ECchat/Modules/libcecc/src/BIP32Sequence.c",
          "flagsOrdinal": 1,
          "workingDirectoryOrdinal": 0
        },
        {
          "src": "/Users/dylanaird/projects/ECchat/Modules/libcecc/src/BIP38Key.c",
          "flagsOrdinal": 1,
          "workingDirectoryOrdinal": 0
        },
        {
          "src": "/Users/dylanaird/projects/ECchat/Modules/libcecc/src/BIP39Mnemonic.c",
          "flagsOrdinal": 1,
          "workingDirectoryOrdinal": 0
        },
        {
          "src": "/Users/dylanaird/projects/ECchat/Modules/libcecc/src/bloomFilter.c",
          "flagsOrdinal": 1,
          "workingDirectoryOrdinal": 0
        },
        {
          "src": "/Users/dylanaird/projects/ECchat/Modules/libcecc/src/crypto.c",
          "flagsOrdinal": 1,
          "workingDirectoryOrdinal": 0
        },
        {
          "src": "/Users/dylanaird/projects/ECchat/Modules/libcecc/src/key.c",
          "flagsOrdinal": 1,
          "workingDirectoryOrdinal": 0
        },
        {
          "src": "/Users/dylanaird/projects/ECchat/Modules/libcecc/src/merkleBlock.c",
          "flagsOrdinal": 1,
          "workingDirectoryOrdinal": 0
        },
        {
          "src": "/Users/dylanaird/projects/ECchat/Modules/libcecc/src/paymentProtocol.c",
          "flagsOrdinal": 1,
          "workingDirectoryOrdinal": 0
        },
        {
          "src": "/Users/dylanaird/projects/ECchat/Modules/libcecc/src/peer.c",
          "flagsOrdinal": 1,
          "workingDirectoryOrdinal": 0
        },
        {
          "src": "/Users/dylanaird/projects/ECchat/Modules/libcecc/src/peerManager.c",
          "flagsOrdinal": 1,
          "workingDirectoryOrdinal": 0
        },
        {
          "src": "/Users/dylanaird/projects/ECchat/Modules/libcecc/src/set.c",
          "flagsOrdinal": 1,
          "workingDirectoryOrdinal": 0
        },
        {
          "src": "/Users/dylanaird/projects/ECchat/Modules/libcecc/src/util.c",
          "flagsOrdinal": 1,
          "workingDirectoryOrdinal": 0
        },
        {
          "src": "/Users/dylanaird/projects/ECchat/Modules/libcecc/src/transaction.c",
          "flagsOrdinal": 1,
          "workingDirectoryOrdinal": 0
        },
        {
          "src": "/Users/dylanaird/projects/ECchat/Modules/libcecc/src/wallet.c",
          "flagsOrdinal": 1,
          "workingDirectoryOrdinal": 0
        }
      ],
      "headers": [
        {
          "header": "/Users/dylanaird/projects/ECchat/Modules/libcecc/include/api.h",
          "workingDirectoryOrdinal": 0
        },
        {
          "header": "/Users/dylanaird/projects/ECchat/Modules/libcecc/include/address.h",
          "workingDirectoryOrdinal": 0
        },
        {
          "header": "/Users/dylanaird/projects/ECchat/Modules/libcecc/include/base58.h",
          "workingDirectoryOrdinal": 0
        },
        {
          "header": "/Users/dylanaird/projects/ECchat/Modules/libcecc/include/BIP32Sequence.h",
          "workingDirectoryOrdinal": 0
        },
        {
          "header": "/Users/dylanaird/projects/ECchat/Modules/libcecc/include/BIP38Key.h",
          "workingDirectoryOrdinal": 0
        },
        {
          "header": "/Users/dylanaird/projects/ECchat/Modules/libcecc/include/BIP39Mnemonic.h",
          "workingDirectoryOrdinal": 0
        },
        {
          "header": "/Users/dylanaird/projects/ECchat/Modules/libcecc/include/BIP39WordsEn.h",
          "workingDirectoryOrdinal": 0
        },
        {
          "header": "/Users/dylanaird/projects/ECchat/Modules/libcecc/include/bloomFilter.h",
          "workingDirectoryOrdinal": 0
        },
        {
          "header": "/Users/dylanaird/projects/ECchat/Modules/libcecc/include/crypto.h",
          "workingDirectoryOrdinal": 0
        },
        {
          "header": "/Users/dylanaird/projects/ECchat/Modules/libcecc/include/key.h",
          "workingDirectoryOrdinal": 0
        },
        {
          "header": "/Users/dylanaird/projects/ECchat/Modules/libcecc/include/merkleBlock.h",
          "workingDirectoryOrdinal": 0
        },
        {
          "header": "/Users/dylanaird/projects/ECchat/Modules/libcecc/include/paymentProtocol.h",
          "workingDirectoryOrdinal": 0
        },
        {
          "header": "/Users/dylanaird/projects/ECchat/Modules/libcecc/include/peer.h",
          "workingDirectoryOrdinal": 0
        },
        {
          "header": "/Users/dylanaird/projects/ECchat/Modules/libcecc/include/peerManager.h",
          "workingDirectoryOrdinal": 0
        },
        {
          "header": "/Users/dylanaird/projects/ECchat/Modules/libcecc/include/transaction.h",
          "workingDirectoryOrdinal": 0
        },
        {
          "header": "/Users/dylanaird/projects/ECchat/Modules/libcecc/include/wallet.h",
          "workingDirectoryOrdinal": 0
        },
        {
          "header": "/Users/dylanaird/projects/ECchat/Modules/libcecc/src/uint256.h",
          "workingDirectoryOrdinal": 0
        },
        {
          "header": "/Users/dylanaird/projects/ECchat/Modules/libcecc/src/array.h",
          "workingDirectoryOrdinal": 0
        },
        {
          "header": "/Users/dylanaird/projects/ECchat/Modules/libcecc/src/int.h",
          "workingDirectoryOrdinal": 0
        },
        {
          "header": "/Users/dylanaird/projects/ECchat/Modules/libcecc/src/set.h",
          "workingDirectoryOrdinal": 0
        },
        {
          "header": "/Users/dylanaird/projects/ECchat/Modules/libcecc/src/util.h",
          "workingDirectoryOrdinal": 0
        }
      ],
      "output": "/Users/dylanaird/projects/ECchat/build/app/intermediates/cmake/profile/obj/x86_64/libcore-lib.so",
      "runtimeFiles": []
    }
  },
  "toolchains": {
    "3808990951": {
      "cCompilerExecutable": "/Users/dylanaird/Downloads/android-ndk-r15c/toolchains/llvm/prebuilt/darwin-x86_64/bin/clang"
    }
  },
  "cFileExtensions": [
    "c"
  ],
  "cppFileExtensions": []
}