{
  "abi": "ARMEABI_V7A",
  "abiPlatformVersion": 24,
  "buildSettings": {
    "environmentVariables": []
  },
  "cmake": {
    "cmakeArtifactsBaseFolder": "/Users/dylanaird/projects/ECchat/android/app/.cxx/cmake/profile/armeabi-v7a",
    "cmakeServerLogFile": "/Users/dylanaird/projects/ECchat/android/app/.cxx/cmake/profile/armeabi-v7a/cmake_server_log.txt",
    "cmakeWrappingBaseFolder": "/Users/dylanaird/projects/ECchat/android/app/.cxx/cxx/profile/armeabi-v7a",
    "effectiveConfiguration": {
      "name": "traditional-android-studio-cmake-environment",
      "description": "Composite reified CMakeSettings configuration",
      "generator": "Ninja",
      "inheritEnvironments": [
        "ndk"
      ],
      "buildRoot": "/Users/dylanaird/projects/ECchat/android/app/.cxx/cmake/profile/armeabi-v7a",
      "cmakeToolchain": "/Users/dylanaird/Downloads/android-ndk-r15c/build/cmake/android.toolchain.cmake",
      "cmakeExecutable": "/Users/dylanaird/Library/Android/sdk/cmake/3.10.2.4988404/bin/cmake",
      "variables": [
        {
          "name": "CMAKE_FIND_ROOT_PATH",
          "value": "/Users/dylanaird/projects/ECchat/android/app/.cxx/cmake/profile/prefab/armeabi-v7a/prefab"
        },
        {
          "name": "CMAKE_BUILD_TYPE",
          "value": "Debug"
        },
        {
          "name": "CMAKE_TOOLCHAIN_FILE",
          "value": "/Users/dylanaird/Downloads/android-ndk-r15c/build/cmake/android.toolchain.cmake"
        },
        {
          "name": "ANDROID_ABI",
          "value": "armeabi-v7a"
        },
        {
          "name": "ANDROID_NDK",
          "value": "/Users/dylanaird/Downloads/android-ndk-r15c"
        },
        {
          "name": "ANDROID_PLATFORM",
          "value": "android-24"
        },
        {
          "name": "CMAKE_ANDROID_ARCH_ABI",
          "value": "armeabi-v7a"
        },
        {
          "name": "CMAKE_ANDROID_NDK",
          "value": "/Users/dylanaird/Downloads/android-ndk-r15c"
        },
        {
          "name": "CMAKE_EXPORT_COMPILE_COMMANDS",
          "value": "ON"
        },
        {
          "name": "CMAKE_LIBRARY_OUTPUT_DIRECTORY",
          "value": "/Users/dylanaird/projects/ECchat/build/app/intermediates/cmake/profile/obj/armeabi-v7a"
        },
        {
          "name": "CMAKE_MAKE_PROGRAM",
          "value": "/Users/dylanaird/Library/Android/sdk/cmake/3.10.2.4988404/bin/ninja"
        },
        {
          "name": "CMAKE_SYSTEM_NAME",
          "value": "Android"
        },
        {
          "name": "CMAKE_SYSTEM_VERSION",
          "value": "24"
        },
        {
          "name": "ANDROID_TOOLCHAIN",
          "value": "clang"
        }
      ]
    }
  },
  "cxxBuildFolder": "/Users/dylanaird/projects/ECchat/android/app/.cxx/cmake/profile/armeabi-v7a",
  "info": {
    "abi": "ARMEABI_V7A",
    "bitness": 64,
    "deprecated": false,
    "default": true
  },
  "originalCxxBuildFolder": "/Users/dylanaird/projects/ECchat/android/app/.cxx/cmake/profile/armeabi-v7a",
  "variant": {
    "buildSystemArgumentList": [
      "-DANDROID_TOOLCHAIN\u003dclang"
    ],
    "buildTargetSet": [],
    "cFlagsList": [],
    "cmakeSettingsConfiguration": "android-gradle-plugin-predetermined-name",
    "cppFlagsList": [],
    "isDebuggableEnabled": true,
    "module": {
      "buildSystem": "CMAKE",
      "cmake": {
        "cmakeExe": "/Users/dylanaird/Library/Android/sdk/cmake/3.10.2.4988404/bin/cmake",
        "minimumCmakeVersion": "3.10.2",
        "ninjaExe": "/Users/dylanaird/Library/Android/sdk/cmake/3.10.2.4988404/bin/ninja"
      },
      "cmakeToolchainFile": "/Users/dylanaird/Downloads/android-ndk-r15c/build/cmake/android.toolchain.cmake",
      "cxxFolder": "/Users/dylanaird/projects/ECchat/android/app/.cxx",
      "gradleModulePathName": ":app",
      "intermediatesFolder": "/Users/dylanaird/projects/ECchat/build/app/intermediates",
      "makeFile": "/Users/dylanaird/projects/ECchat/android/app/CMakeLists.txt",
      "moduleBuildFile": "/Users/dylanaird/projects/ECchat/android/app/build.gradle",
      "moduleRootFolder": "/Users/dylanaird/projects/ECchat/android/app",
      "ndkDefaultAbiList": [
        "ARMEABI",
        "ARMEABI_V7A",
        "ARM64_V8A",
        "MIPS",
        "MIPS64",
        "X86",
        "X86_64"
      ],
      "ndkFolder": "/Users/dylanaird/Downloads/android-ndk-r15c",
      "ndkMetaAbiList": [
        {
          "abi": "ARMEABI",
          "bitness": 64,
          "deprecated": false,
          "default": true
        },
        {
          "abi": "ARMEABI_V7A",
          "bitness": 64,
          "deprecated": false,
          "default": true
        },
        {
          "abi": "ARM64_V8A",
          "bitness": 64,
          "deprecated": false,
          "default": true
        },
        {
          "abi": "MIPS",
          "bitness": 64,
          "deprecated": false,
          "default": true
        },
        {
          "abi": "MIPS64",
          "bitness": 64,
          "deprecated": false,
          "default": true
        },
        {
          "abi": "X86",
          "bitness": 64,
          "deprecated": false,
          "default": true
        },
        {
          "abi": "X86_64",
          "bitness": 64,
          "deprecated": false,
          "default": true
        }
      ],
      "ndkSupportedAbiList": [
        "ARMEABI",
        "ARMEABI_V7A",
        "ARM64_V8A",
        "MIPS",
        "MIPS64",
        "X86",
        "X86_64"
      ],
      "ndkDefaultStl": "GNUSTL_STATIC",
      "ndkVersion": "15.2.4203891",
      "project": {
        "compilerSettingsCacheFolder": "/Users/dylanaird/projects/ECchat/android/.cxx",
        "cxxFolder": "/Users/dylanaird/projects/ECchat/android/.cxx",
        "isBuildOnlyTargetAbiEnabled": true,
        "isCmakeBuildCohabitationEnabled": false,
        "isNativeCompilerSettingsCacheEnabled": false,
        "rootBuildGradleFolder": "/Users/dylanaird/projects/ECchat/android",
        "sdkFolder": "/Users/dylanaird/Library/Android/sdk",
        "isPrefabEnabled": false
      },
      "splitsAbiFilterSet": [],
      "stlSharedObjectMap": {
        "GNUSTL_SHARED": {
          "ARMEABI": "/Users/dylanaird/Downloads/android-ndk-r15c/sources/cxx-stl/gnu-libstdc++/4.9/libs/armeabi/libgnustl_shared.so",
          "ARMEABI_V7A": "/Users/dylanaird/Downloads/android-ndk-r15c/sources/cxx-stl/gnu-libstdc++/4.9/libs/armeabi-v7a/libgnustl_shared.so",
          "ARM64_V8A": "/Users/dylanaird/Downloads/android-ndk-r15c/sources/cxx-stl/gnu-libstdc++/4.9/libs/arm64-v8a/libgnustl_shared.so",
          "MIPS": "/Users/dylanaird/Downloads/android-ndk-r15c/sources/cxx-stl/gnu-libstdc++/4.9/libs/mips/libgnustl_shared.so",
          "MIPS64": "/Users/dylanaird/Downloads/android-ndk-r15c/sources/cxx-stl/gnu-libstdc++/4.9/libs/mips64/libgnustl_shared.so",
          "X86": "/Users/dylanaird/Downloads/android-ndk-r15c/sources/cxx-stl/gnu-libstdc++/4.9/libs/x86/libgnustl_shared.so",
          "X86_64": "/Users/dylanaird/Downloads/android-ndk-r15c/sources/cxx-stl/gnu-libstdc++/4.9/libs/x86_64/libgnustl_shared.so"
        },
        "GNUSTL_STATIC": {},
        "LIBCXX_SHARED": {
          "ARMEABI": "/Users/dylanaird/Downloads/android-ndk-r15c/sources/cxx-stl/llvm-libc++/libs/armeabi/libc++_shared.so",
          "ARMEABI_V7A": "/Users/dylanaird/Downloads/android-ndk-r15c/sources/cxx-stl/llvm-libc++/libs/armeabi-v7a/libc++_shared.so",
          "ARM64_V8A": "/Users/dylanaird/Downloads/android-ndk-r15c/sources/cxx-stl/llvm-libc++/libs/arm64-v8a/libc++_shared.so",
          "MIPS": "/Users/dylanaird/Downloads/android-ndk-r15c/sources/cxx-stl/llvm-libc++/libs/mips/libc++_shared.so",
          "MIPS64": "/Users/dylanaird/Downloads/android-ndk-r15c/sources/cxx-stl/llvm-libc++/libs/mips64/libc++_shared.so",
          "X86": "/Users/dylanaird/Downloads/android-ndk-r15c/sources/cxx-stl/llvm-libc++/libs/x86/libc++_shared.so",
          "X86_64": "/Users/dylanaird/Downloads/android-ndk-r15c/sources/cxx-stl/llvm-libc++/libs/x86_64/libc++_shared.so"
        },
        "LIBCXX_STATIC": {},
        "NONE": {},
        "STLPORT_SHARED": {
          "ARMEABI": "/Users/dylanaird/Downloads/android-ndk-r15c/sources/cxx-stl/stlport/libs/armeabi/libstlport_shared.so",
          "ARMEABI_V7A": "/Users/dylanaird/Downloads/android-ndk-r15c/sources/cxx-stl/stlport/libs/armeabi-v7a/libstlport_shared.so",
          "ARM64_V8A": "/Users/dylanaird/Downloads/android-ndk-r15c/sources/cxx-stl/stlport/libs/arm64-v8a/libstlport_shared.so",
          "MIPS": "/Users/dylanaird/Downloads/android-ndk-r15c/sources/cxx-stl/stlport/libs/mips/libstlport_shared.so",
          "MIPS64": "/Users/dylanaird/Downloads/android-ndk-r15c/sources/cxx-stl/stlport/libs/mips64/libstlport_shared.so",
          "X86": "/Users/dylanaird/Downloads/android-ndk-r15c/sources/cxx-stl/stlport/libs/x86/libstlport_shared.so",
          "X86_64": "/Users/dylanaird/Downloads/android-ndk-r15c/sources/cxx-stl/stlport/libs/x86_64/libstlport_shared.so"
        },
        "STLPORT_STATIC": {},
        "SYSTEM": {}
      }
    },
    "objFolder": "/Users/dylanaird/projects/ECchat/build/app/intermediates/cmake/profile/obj",
    "variantName": "profile",
    "validAbiList": [
      "ARMEABI_V7A",
      "ARM64_V8A",
      "X86",
      "X86_64"
    ],
    "prefabDirectory": "/Users/dylanaird/projects/ECchat/android/app/.cxx/cmake/profile/prefab",
    "prefabPackageDirectoryList": []
  },
  "prefabFolder": "/Users/dylanaird/projects/ECchat/android/app/.cxx/cmake/profile/prefab/armeabi-v7a"
}